<?xml version="1.0" encoding="utf-8"?>
<!-- Generator: Adobe Illustrator 18.1.0, SVG Export Plug-In . SVG Version: 6.00 Build 0)  -->
<svg version="1.1" id="Layer_1" xmlns="http://www.w3.org/2000/svg" xmlns:xlink="http://www.w3.org/1999/xlink" x="0px" y="0px"
	 viewBox="0 0 122 82" enable-background="new 0 0 122 82" xml:space="preserve">
<g>
	<path fill="#FFFFFF" d="M0.1,51.8h2.1c2.1,0,4.6-0.1,4.6,2.6c0,1.1-0.8,2.1-2,2.3v0c0.5,0,0.8,0.6,1,1l1.6,3.8H5.2l-1.2-3.1
		c-0.3-0.7-0.5-1-1.4-1H2.1v4.1h-2V51.8z M2.1,56h0.6c1,0,2.1-0.1,2.1-1.4c0-1.2-1.1-1.3-2.1-1.3H2.1V56z"/>
	<path fill="#FFFFFF" d="M8.8,51.8h5.8v1.5h-3.8v2.4h3.5v1.5h-3.5v2.7h3.8v1.5H8.8V51.8z"/>
	<path fill="#FFFFFF" d="M16.6,51.8h3.1l2.3,7.4h0l2.3-7.4h3.1v9.8h-1.9v-8.1h0L23,61.6h-1.9l-2.6-8.1l0,0v8h-1.9V51.8z"/>
	<path fill="#FFFFFF" d="M34.2,51.7c3.1,0,4.8,2.1,4.8,5s-1.7,5.1-4.8,5.1c-3.1,0-4.8-2.1-4.8-5.1S31,51.7,34.2,51.7z M34.2,60.2
		c2,0,2.7-1.8,2.7-3.5c0-1.7-0.8-3.5-2.7-3.5c-1.9,0-2.7,1.8-2.7,3.5C31.4,58.4,32.2,60.2,34.2,60.2z"/>
	<path fill="#FFFFFF" d="M42.5,53.4h-2.8v-1.5h7.6v1.5h-2.8v8.2h-2V53.4z"/>
	<path fill="#FFFFFF" d="M48.5,51.8h5.8v1.5h-3.8v2.4H54v1.5h-3.5v2.7h3.8v1.5h-5.8V51.8z"/>
	<path fill="#FFFFFF" d="M67.3,61.5c-0.7,0.2-1.5,0.3-2.2,0.3c-3.2,0-5.4-1.6-5.4-4.9c0-3.3,2-5.2,5.4-5.2c0.6,0,1.5,0.1,2.2,0.4
		l-0.1,1.7c-0.7-0.4-1.4-0.5-2.1-0.5c-2,0-3.3,1.5-3.3,3.5c0,2,1.2,3.5,3.3,3.5c0.8,0,1.7-0.2,2.1-0.4L67.3,61.5z"/>
	<path fill="#FFFFFF" d="M73.1,51.7c3.1,0,4.8,2.1,4.8,5s-1.7,5.1-4.8,5.1c-3.1,0-4.8-2.1-4.8-5.1S70,51.7,73.1,51.7z M73.1,60.2
		c2,0,2.7-1.8,2.7-3.5c0-1.7-0.8-3.5-2.7-3.5s-2.7,1.8-2.7,3.5C70.3,58.4,71.1,60.2,73.1,60.2z"/>
	<path fill="#FFFFFF" d="M84,51.7c3.1,0,4.8,2.1,4.8,5s-1.7,5.1-4.8,5.1c-3.1,0-4.8-2.1-4.8-5.1S80.8,51.7,84,51.7z M84,60.2
		c2,0,2.7-1.8,2.7-3.5c0-1.7-0.8-3.5-2.7-3.5c-1.9,0-2.7,1.8-2.7,3.5C81.2,58.4,82,60.2,84,60.2z"/>
	<path fill="#FFFFFF" d="M90.5,51.8h2V56l3.5-4.2h2.4l-4,4.6l4.2,5.2H96l-3.5-4.5h0v4.5h-2V51.8z"/>
	<path fill="#FFFFFF" d="M99.7,51.8h2v9.8h-2V51.8z"/>
	<path fill="#FFFFFF" d="M103.7,51.8h2.4l3.7,7.3h0v-7.3h1.9v9.8h-2.4l-3.7-7.3h0v7.3h-1.9V51.8z"/>
	<path fill="#FFFFFF" d="M121.5,53.7c-0.8-0.4-1.7-0.5-2.5-0.5c-2.3,0-3.5,1.5-3.5,3.5c0,2,1.2,3.5,3.3,3.5c0.5,0,1-0.1,1.3-0.1
		v-2.5H118V56h4v5.3c-1,0.3-2.1,0.5-3.2,0.5c-3.2,0-5.4-1.6-5.4-4.9c0-3.3,2-5.2,5.4-5.2c1.1,0,2,0.2,2.9,0.4L121.5,53.7z"/>
	<path fill="#FFFFFF" d="M31.4,71.9h5.8v1.5h-3.8v2.4h3.5v1.5h-3.5v2.7h3.8v1.5h-5.8V71.9z"/>
	<path fill="#FFFFFF" d="M39.1,71.9h2.4l3.7,7.3h0v-7.3h1.9v9.8h-2.4L41,74.4h0v7.3h-1.9V71.9z"/>
	<path fill="#FFFFFF" d="M52.1,71.9h2.2l3.8,9.8H56l-0.8-2.2h-4l-0.9,2.2h-2L52.1,71.9z M53.2,73.9L53.2,73.9l-1.4,4h2.9L53.2,73.9z
		"/>
	<path fill="#FFFFFF" d="M59.4,71.9h3.4c1.3,0,3.2,0.4,3.2,2.5c0,1.2-0.8,2-1.9,2.2v0c1.3,0.1,2.2,1,2.2,2.2c0,2.5-2.2,2.8-3.4,2.8
		h-3.4V71.9z M61.4,75.9h0.8c0.8,0,1.8-0.2,1.8-1.2c0-1.1-1-1.2-1.9-1.2h-0.8V75.9z M61.4,80.2h0.9c0.9,0,2-0.2,2-1.4
		c0-1.3-1-1.5-2-1.5h-0.9V80.2z"/>
	<path fill="#FFFFFF" d="M68,71.9h2v8.2h3.8v1.5H68V71.9z"/>
	<path fill="#FFFFFF" d="M75,71.9h5.8v1.5h-3.8v2.4h3.5v1.5h-3.5v2.7h3.8v1.5H75V71.9z"/>
	<path fill="#FFFFFF" d="M82.8,71.9h2.7c3,0,5.6,1,5.6,4.9c0,3.9-2.6,4.9-5.6,4.9h-2.7V71.9z M84.7,80.2h1.1c1.6,0,3.2-1.2,3.2-3.3
		c0-2.1-1.6-3.3-3.2-3.3h-1.1V80.2z"/>
</g>
<g>
	<path fill="#FFFFFF" d="M78.4,16c0,5.2-2.2,10-5.6,13.3l2.6,2.6C79.5,27.9,82,22.2,82,16S79.5,4.1,75.3,0.1l-2.6,2.6
		C76.2,6,78.4,10.8,78.4,16z"/>
	<path fill="#FFFFFF" d="M71,16c0,3.4-1.4,6.4-3.7,8.6l2.4,2.4c2.9-2.8,4.6-6.7,4.6-11s-1.8-8.2-4.6-11l-2.4,2.4
		C69.6,9.6,71,12.6,71,16z"/>
	<path fill="#FFFFFF" d="M43.2,16c0,5.2,2.2,10,5.6,13.3l-2.6,2.6c-4.1-4.1-6.7-9.7-6.7-15.9s2.6-11.9,6.7-15.9l2.6,2.6
		C45.4,6,43.2,10.8,43.2,16z"/>
	<path fill="#FFFFFF" d="M50.6,16c0,3.4,1.4,6.4,3.7,8.6L51.9,27c-2.9-2.8-4.6-6.7-4.6-11S49,7.8,51.9,5l2.4,2.4
		C52,9.6,50.6,12.6,50.6,16z"/>
	<circle fill="#FFFFFF" cx="61" cy="16" r="4.3"/>
</g>
</svg>
